m,c
0.00,21.49
1.00,22.70
2.00,23.91
3.00,25.12
4.00,26.33
5.00,27.54
6.00,28.75
7.00,29.96
8.00,31.17
9.00,32.38
10.00,33.59
11.00,34.80
12.00,36.01
13.00,37.22
14.00,38.43
15.00,39.64
16.00,40.85
17.00,42.06
18.00,43.27
19.00,44.48
20.00,45.69
21.00,46.90
22.00,48.11
23.00,49.32
24.00,50.53
25.00,51.74
26.00,52.95
27.00,54.16
28.00,55.37
29.00,56.58
30.00,57.79
31.00,59.00
32.00,60.21
33.00,61.42
34.00,62.63
35.00,63.84
36.00,65.05
37.00,66.26
38.00,67.47
39.00,68.68
40.00,69.89
41.00,71.10
42.00,72.31
43.00,73.52
44.00,74.73
45.00,75.94
46.00,77.15
47.00,78.36
48.00,79.57
49.00,80.78
50.00,81.99
51.00,83.20
52.00,84.41
53.00,85.62
54.00,86.83
55.00,88.04
56.00,89.25
57.00,90.46
58.00,91.67
59.00,92.88
60.00,94.09
61.00,95.30
62.00,96.51
63.00,97.72
64.00,98.93
65.00,100.14
66.00,101.35
67.00,102.56
68.00,103.77
69.00,104.98
70.00,106.19
71.00,107.40
72.00,108.61
73.00,109.82
74.00,111.03
75.00,112.24
76.00,113.45
77.00,114.66
78.00,115.87
79.00,117.08
80.00,118.29
81.00,119.50
82.00,120.71
83.00,121.92
84.00,123.13
85.00,124.34
86.00,125.55
87.00,126.76
88.00,127.97
89.00,129.18
90.00,130.39
91.00,131.60
92.00,132.81
93.00,134.02
94.00,135.23
95.00,136.44
96.00,137.65
97.00,138.86
98.00,140.07
99.00,141.28
